{
  "_fv": 5,
  "_type": "procedure",
  "definition": {
    "procedurexml": "<xml xmlns=\"https://developers.google.com/blockly/xml\"><block type=\"event_trigger\" deletable=\"false\" x=\"231\" y=\"58\"><field name=\"trigger\">No additional trigger</field><next><block type=\"spawn_entity\"><field name=\"entity\">EntityAgeable</field><value name=\"x\"><block type=\"coord_x\"/></value><value name=\"y\"><block type=\"coord_y\"/></value><value name=\"z\"><block type=\"coord_z\"/></value><next><block type=\"entity_add_potion_advanced\"><field name=\"potion\">SLOWNESS</field><value name=\"level\"><block type=\"math_number\"><field name=\"NUM\">2555</field></block></value><value name=\"duration\"><block type=\"math_number\"><field name=\"NUM\">200</field></block></value><value name=\"ambient\"><block type=\"logic_boolean\"><field name=\"BOOL\">FALSE</field></block></value><value name=\"particles\"><block type=\"logic_boolean\"><field name=\"BOOL\">FALSE</field></block></value><next><block type=\"controls_while\"><value name=\"BOOL\"><block type=\"entity_haspotioneffect\"><field name=\"potion\">SLOWNESS</field></block></value><statement name=\"DO\"><block type=\"entity_setinweb\"/></statement></block></next></block></next></block></next></block></xml>"
  }
}