{
  "_fv": 5,
  "_type": "tool",
  "definition": {
    "renderType": 0,
    "texture": "wand",
    "customModelName": "Normal",
    "name": "Teleporto",
    "creativeTab": {
      "value": "No creative tab entry"
    },
    "toolType": "Special",
    "harvestLevel": 0,
    "efficiency": 0.0,
    "attackSpeed": 0.0,
    "enchantability": 0,
    "damageVsEntity": 0.0,
    "usageCount": 100000,
    "blocksAffected": [],
    "hasGlow": false,
    "repairItems": [],
    "onRightClickedInAir": {
      "name": "TeleportoRightClickedInAir"
    }
  }
}