{
  "group": "the_ultimate_combat_update",
  "type": "minecraft:crafting_shaped",
  "pattern": [
    "0"
  ],
  "key": {
    "0": {
      "item": "minecraft:wither_rose"
    }
  },
  "result": {
    "item": "the_ultimate_combat_update:bullet",
    "count": 20
  }
}